{
    "fluentMethods": true,
    "relationships": [
        {
            "relationshipType": "many-to-one",
            "relationshipName": "room",
            "otherEntityName": "room",
            "otherEntityField": "id"
        },
        {
            "relationshipType": "many-to-one",
            "relationshipName": "subject",
            "otherEntityName": "subjectResource",
            "otherEntityField": "id"
        }
    ],
    "fields": [
        {
            "fieldName": "day",
            "fieldType": "Day",
            "fieldValues": "MONDAY,TUESDAY,WEDNESDAY,THURSDAY,FRIDAY",
            "fieldValidateRules": [
                "required"
            ]
        },
        {
            "fieldName": "number",
            "fieldType": "Integer",
            "fieldValidateRules": [
                "required",
                "min",
                "max"
            ],
            "fieldValidateRulesMin": 1,
            "fieldValidateRulesMax": 16
        }
    ],
    "changelogDate": "20171224211457",
    "entityTableName": "slot",
    "dto": "mapstruct",
    "pagination": "no",
    "service": "serviceClass",
    "jpaMetamodelFiltering": false
}